OFF
24 44 0

1 1 0
0.5 1 0
1 1 0.5
0 1 0
0 1 0.5
1 0 1
0.5 0 1
1 0.5 1
0 0 1
0 0.5 1
1 1 1
0.5 1 1
0 1 1
0 2 0
1 2 0
1 2 1
0 2 1
1 0 0
0 0 0
0 0.666667 0.666667
0 0 2
1 0 2
1 1 2
0 1 2
3  0 1 14
3  1 13 14
3  0 14 2
3  14 13 16
3  14 16 15
3  4 16 13
3  12 11 16
3  3 13 1
3  15 2 14
3  10 2 15
3  3 4 13
3  12 16 4
3  15 11 10
3  11 15 16
3  18 17 5
3  6 18 5
3  2 7 17
3  19 18 8
3  18 1 0
3  0 17 18
3  3 1 18
3  18 6 8
3  17 0 2
3  10 7 2
3  7 5 17
3  3 19 4
3  3 18 19
3  9 12 19
3  9 19 8
3  19 12 4
3  6 5 21
3  6 20 8
3  5 7 21
3  11 22 10
3  20 21 22
3  20 22 23
3  20 6 21
3  7 10 22
3  7 22 21
3  23 11 12
3  22 11 23
3  20 9 8
3  23 12 9
3  23 9 20

