{
    "type": "Union",
    "mesh1": {
        "type": "RectangularCuboid",
        "p1": [0, 0, 0],
        "p2": [1, 2, 1]
    },
    "mesh2": {
        "type": "RectangularCuboid",
        "p1": [0, 0, 0],
        "p2": [1, 1, 2]
    }
}
